^Y:\OBIG-1-SUPERSECURITY-EA2\OBLIGATORIO1\FRAMEWORK\DEBUG\ARRAY.OBJ|Y:\OBIG-1-SUPERSECURITY-EA2\OBLIGATORIO1\FRAMEWORK\DEBUG\ARRAYITERACION.OBJ|Y:\OBIG-1-SUPERSECURITY-EA2\OBLIGATORIO1\FRAMEWORK\DEBUG\CADENA.OBJ|Y:\OBIG-1-SUPERSECURITY-EA2\OBLIGATORIO1\FRAMEWORK\DEBUG\CADENAFUNCIONHASH.OBJ|Y:\OBIG-1-SUPERSECURITY-EA2\OBLIGATORIO1\FRAMEWORK\DEBUG\COMPARADOR.OBJ|Y:\OBIG-1-SUPERSECURITY-EA2\OBLIGATORIO1\FRAMEWORK\DEBUG\CONCATITERACION.OBJ|Y:\OBIG-1-SUPERSECURITY-EA2\OBLIGATORIO1\FRAMEWORK\DEBUG\CONDUCTORPRUEBA.OBJ|Y:\OBIG-1-SUPERSECURITY-EA2\OBLIGATORIO1\FRAMEWORK\DEBUG\CONVERTITERACION.OBJ|Y:\OBIG-1-SUPERSECURITY-EA2\OBLIGATORIO1\FRAMEWORK\DEBUG\ESTADISTICAPRUEBA.OBJ|Y:\OBIG-1-SUPERSECURITY-EA2\OBLIGATORIO1\FRAMEWORK\DEBUG\ITERADOR.OBJ|Y:\OBIG-1-SUPERSECURITY-EA2\OBLIGATORIO1\FRAMEWORK\DEBUG\MANEJADORIMPRESION.OBJ|Y:\OBIG-1-SUPERSECURITY-EA2\OBLIGATORIO1\FRAMEWORK\DEBUG\MANEJADORIMPRESIONTXT.OBJ|Y:\OBIG-1-SUPERSECURITY-EA2\OBLIGATORIO1\FRAMEWORK\DEBUG\MANEJADORIMPRESIONXML.OBJ|Y:\OBIG-1-SUPERSECURITY-EA2\OBLIGATORIO1\FRAMEWORK\DEBUG\MATRIZ.OBJ|Y:\OBIG-1-SUPERSECURITY-EA2\OBLIGATORIO1\FRAMEWORK\DEBUG\MATRIZITERACION.OBJ|Y:\OBIG-1-SUPERSECURITY-EA2\OBLIGATORIO1\FRAMEWORK\DEBUG\MEMORYSHARE.OBJ|Y:\OBIG-1-SUPERSECURITY-EA2\OBLIGATORIO1\FRAMEWORK\DEBUG\PRUEBA.OBJ|Y:\OBIG-1-SUPERSECURITY-EA2\OBLIGATORIO1\FRAMEWORK\DEBUG\PRUEBAMEMORIA.OBJ|Y:\OBIG-1-SUPERSECURITY-EA2\OBLIGATORIO1\FRAMEWORK\DEBUG\PUNTERO.OBJ|Y:\OBIG-1-SUPERSECURITY-EA2\OBLIGATORIO1\FRAMEWORK\DEBUG\TUPLA.OBJ
C:\WINDOWS\SYSTEM32\TZRES.DLL
Y:\OBIG-1-SUPERSECURITY-EA2\OBLIGATORIO1\FRAMEWORK\DEBUG\ARRAY.OBJ
Y:\OBIG-1-SUPERSECURITY-EA2\OBLIGATORIO1\FRAMEWORK\DEBUG\ARRAYITERACION.OBJ
Y:\OBIG-1-SUPERSECURITY-EA2\OBLIGATORIO1\FRAMEWORK\DEBUG\PUNTERO.OBJ
Y:\OBIG-1-SUPERSECURITY-EA2\OBLIGATORIO1\FRAMEWORK\DEBUG\CADENA.OBJ
Y:\OBIG-1-SUPERSECURITY-EA2\OBLIGATORIO1\FRAMEWORK\DEBUG\COMPARADOR.OBJ
Y:\OBIG-1-SUPERSECURITY-EA2\OBLIGATORIO1\FRAMEWORK\DEBUG\CADENAFUNCIONHASH.OBJ
Y:\OBIG-1-SUPERSECURITY-EA2\OBLIGATORIO1\FRAMEWORK\DEBUG\CONCATITERACION.OBJ
Y:\OBIG-1-SUPERSECURITY-EA2\OBLIGATORIO1\FRAMEWORK\DEBUG\CONVERTITERACION.OBJ
Y:\OBIG-1-SUPERSECURITY-EA2\OBLIGATORIO1\FRAMEWORK\DEBUG\ITERADOR.OBJ
Y:\OBIG-1-SUPERSECURITY-EA2\OBLIGATORIO1\FRAMEWORK\DEBUG\MATRIZ.OBJ
Y:\OBIG-1-SUPERSECURITY-EA2\OBLIGATORIO1\FRAMEWORK\DEBUG\MATRIZITERACION.OBJ
Y:\OBIG-1-SUPERSECURITY-EA2\OBLIGATORIO1\FRAMEWORK\DEBUG\MEMORYSHARE.OBJ
Y:\OBIG-1-SUPERSECURITY-EA2\OBLIGATORIO1\FRAMEWORK\DEBUG\CONDUCTORPRUEBA.OBJ
Y:\OBIG-1-SUPERSECURITY-EA2\OBLIGATORIO1\FRAMEWORK\DEBUG\ESTADISTICAPRUEBA.OBJ
Y:\OBIG-1-SUPERSECURITY-EA2\OBLIGATORIO1\FRAMEWORK\DEBUG\MANEJADORIMPRESION.OBJ
Y:\OBIG-1-SUPERSECURITY-EA2\OBLIGATORIO1\FRAMEWORK\DEBUG\MANEJADORIMPRESIONTXT.OBJ
Y:\OBIG-1-SUPERSECURITY-EA2\OBLIGATORIO1\FRAMEWORK\DEBUG\MANEJADORIMPRESIONXML.OBJ
Y:\OBIG-1-SUPERSECURITY-EA2\OBLIGATORIO1\FRAMEWORK\DEBUG\PRUEBA.OBJ
Y:\OBIG-1-SUPERSECURITY-EA2\OBLIGATORIO1\FRAMEWORK\DEBUG\PRUEBAMEMORIA.OBJ
Y:\OBIG-1-SUPERSECURITY-EA2\OBLIGATORIO1\FRAMEWORK\DEBUG\TUPLA.OBJ
C:\WINDOWS\GLOBALIZATION\SORTING\SORTDEFAULT.NLS
