^Y:\OBIG-1-SUPERSECURITY-EA2\OBLIGATORIO1\IMPLEMENTACION\ASOCIACION.CPP
Y:\OBIG-1-SUPERSECURITY-EA2\OBLIGATORIO1\IMPLEMENTACION\DEBUG\VC120.PDB
^Y:\OBIG-1-SUPERSECURITY-EA2\OBLIGATORIO1\IMPLEMENTACION\AVL.CPP
Y:\OBIG-1-SUPERSECURITY-EA2\OBLIGATORIO1\IMPLEMENTACION\DEBUG\VC120.PDB
^Y:\OBIG-1-SUPERSECURITY-EA2\OBLIGATORIO1\IMPLEMENTACION\CASODEPRUEBA.CPP
Y:\OBIG-1-SUPERSECURITY-EA2\OBLIGATORIO1\IMPLEMENTACION\DEBUG\VC120.PDB
^Y:\OBIG-1-SUPERSECURITY-EA2\OBLIGATORIO1\IMPLEMENTACION\CPIMP.CPP
Y:\OBIG-1-SUPERSECURITY-EA2\OBLIGATORIO1\IMPLEMENTACION\DEBUG\VC120.PDB
^Y:\OBIG-1-SUPERSECURITY-EA2\OBLIGATORIO1\IMPLEMENTACION\GRAFOIMPMATRIZ.CPP
Y:\OBIG-1-SUPERSECURITY-EA2\OBLIGATORIO1\IMPLEMENTACION\DEBUG\VC120.PDB
^Y:\OBIG-1-SUPERSECURITY-EA2\OBLIGATORIO1\IMPLEMENTACION\HASH.CPP
Y:\OBIG-1-SUPERSECURITY-EA2\OBLIGATORIO1\IMPLEMENTACION\DEBUG\VC120.PDB
^Y:\OBIG-1-SUPERSECURITY-EA2\OBLIGATORIO1\IMPLEMENTACION\PILAIMP.CPP
Y:\OBIG-1-SUPERSECURITY-EA2\OBLIGATORIO1\IMPLEMENTACION\DEBUG\VC120.PDB
^Y:\OBIG-1-SUPERSECURITY-EA2\OBLIGATORIO1\IMPLEMENTACION\PRUEBASMOCK.CPP
Y:\OBIG-1-SUPERSECURITY-EA2\OBLIGATORIO1\IMPLEMENTACION\DEBUG\VC120.PDB
^Y:\OBIG-1-SUPERSECURITY-EA2\OBLIGATORIO1\IMPLEMENTACION\MAIN.CPP
Y:\OBIG-1-SUPERSECURITY-EA2\OBLIGATORIO1\IMPLEMENTACION\DEBUG\VC120.PDB
^Y:\OBIG-1-SUPERSECURITY-EA2\OBLIGATORIO1\IMPLEMENTACION\SISTEMA.CPP
Y:\OBIG-1-SUPERSECURITY-EA2\OBLIGATORIO1\IMPLEMENTACION\DEBUG\VC120.PDB
^Y:\OBIG-1-SUPERSECURITY-EA2\OBLIGATORIO1\IMPLEMENTACION\TABLAIMPHASH.CPP
Y:\OBIG-1-SUPERSECURITY-EA2\OBLIGATORIO1\IMPLEMENTACION\DEBUG\VC120.PDB
